"","V1","V2"
"1",1,0.886219626425698
"2",2,0.886219626425698
"3",3,0.886219626425698
"4",4,0.886219626425698
"5",5,0.886219626425698
"6",6,0.886219626425698
"7",7,0.886219626425698
"8",8,0.886219626425698
"9",9,0.886219626425698
"10",10,0.886219626425698
"11",11,0.886219626425698
"12",12,0.886219626425698
"13",13,0.886219626425698
"14",14,0.886219626425698
"15",15,0.886219626425698
"16",16,0.886219626425698
"17",17,0.886219626425698
"18",18,0.886219626425698
"19",19,0.886219626425698
"20",20,0.886219626425698
"21",21,0.886219626425698
"22",22,0.886219626425698
"23",23,0.886219626425698
"24",24,0.886219626425698
"25",25,0.886219626425698
"26",26,0.886219626425698
"27",27,0.886219626425698
"28",28,0.886219626425698
"29",29,0.886219626425698
"30",30,0.886219626425698
"31",1,0.886219626425698
"32",2,0.886219626425698
"33",3,0.886219626425698
"34",4,0.886219626425698
"35",5,0.886219626425698
"36",6,0.886219626425698
"37",7,0.886219626425698
"38",8,0.886219626425698
"39",9,0.886219626425698
"40",10,0.886219626425698
"41",11,0.886219626425698
"42",12,0.886219626425698
"43",13,0.886219626425698
"44",14,0.886219626425698
"45",15,0.886219626425698
"46",16,0.886219626425698
"47",17,0.886219626425698
"48",18,0.886219626425698
"49",19,0.886219626425698
"50",20,0.886219626425698
"51",21,0.886219626425698
"52",22,0.886219626425698
"53",23,0.886219626425698
"54",24,0.886219626425698
"55",25,0.886219626425698
"56",26,0.886219626425698
"57",27,0.886219626425698
"58",28,0.886219626425698
"59",29,0.886219626425698
"60",30,0.886219626425698
