"","V1","V2"
"1",1,0.980377358490566
"2",2,0.980377358490566
"3",3,0.980377358490566
"4",4,0.980377358490566
"5",5,0.980377358490566
"6",6,0.980377358490566
"7",7,0.980377358490566
"8",8,0.980377358490566
"9",9,0.980377358490566
"10",10,0.980377358490566
"11",11,0.980377358490566
"12",12,0.980377358490566
"13",13,0.980377358490566
"14",14,0.980377358490566
"15",15,0.980377358490566
"16",16,0.980377358490566
"17",17,0.980377358490566
"18",18,0.980377358490566
"19",19,0.980377358490566
"20",20,0.980377358490566
"21",21,0.980377358490566
"22",22,0.980377358490566
"23",23,0.980377358490566
"24",24,0.980377358490566
"25",25,0.980377358490566
"26",26,0.980377358490566
"27",27,0.980377358490566
"28",28,0.980377358490566
"29",29,0.980377358490566
"30",30,0.980377358490566
"31",1,0.980377358490566
"32",2,0.980377358490566
"33",3,0.980377358490566
"34",4,0.980377358490566
"35",5,0.980377358490566
"36",6,0.980377358490566
"37",7,0.980377358490566
"38",8,0.980377358490566
"39",9,0.980377358490566
"40",10,0.980377358490566
"41",11,0.980377358490566
"42",12,0.980377358490566
"43",13,0.980377358490566
"44",14,0.980377358490566
"45",15,0.980377358490566
"46",16,0.980377358490566
"47",17,0.980377358490566
"48",18,0.980377358490566
"49",19,0.980377358490566
"50",20,0.980377358490566
"51",21,0.980377358490566
"52",22,0.980377358490566
"53",23,0.980377358490566
"54",24,0.980377358490566
"55",25,0.980377358490566
"56",26,0.980377358490566
"57",27,0.980377358490566
"58",28,0.980377358490566
"59",29,0.980377358490566
"60",30,0.980377358490566
